{
  "result" : [ {
    "credit_bureau_values_transunion_indexed" : {
      "credit_report_date" : "2022-01-12 15:20:52 -0700",
      "at02s_open_accounts" : 8.0,
      "g041s_accounts_30_or_more_days_past_due_ever" : 5.0,
      "g093s_number_of_public_records" : 0.0,
      "g094s_number_of_public_record_bankruptcies" : -4.0,
      "g095s_months_since_most_recent_public_record" : -4.0,
      "g102s_months_since_most_recent_inquiry" : 7.0,
      "g218b_number_of_delinquent_accounts" : 0.0,
      "g980s_inquiries_in_the_last_6_months" : 0.0,
      "re20s_age_of_oldest_revolving_account_in_months" : 103.0,
      "s207s_months_since_most_recent_public_record_bankruptcy" : -4.0,
      "re33s_balance_owed_on_all_revolving_accounts" : 7280.0,
      "at57s_amount_delinquent" : 0.0,
      "g099s_public_records_last_24_months" : -4.0,
      "at20s_oldest_trade_open_date" : 161.0,
      "at03s_current_credit_lines" : 8.0,
      "re101s_revolving_balance" : 7280.0,
      "bc34s_bankcard_utilization" : 74.0,
      "at01s_credit_lines" : 20.0,
      "fico_score" : "660-679"
    },
    "has_mortgage" : false,
    "historical_return" : 0.058,
    "historical_return_10th_pctl" : 0.03264,
    "historical_return_90th_pctl" : 0.0938,
    "estimated_monthly_housing_expense" : 1500.0,
    "co_borrower_application" : false,
    "investment_product_id" : 1,
    "decision_bureau" : "TransUnion",
    "member_key" : "B9CB930982114CC1ACF",
    "listing_creation_date" : "2022-01-12 16:12:52 -0700",
    "listing_status" : 2,
    "listing_status_reason" : "Active",
    "verification_stage" : 3,
    "listing_amount" : 15000.0,
    "amount_funded" : 14803.0,
    "amount_remaining" : 197.0,
    "percent_funded" : 0.9868,
    "partial_funding_indicator" : true,
    "funding_threshold" : 0.7,
    "prosper_rating" : "C",
    "investment_typeid" : 1,
    "investment_type_description" : "Fractional",
    "last_updated_date" : "2022-01-12 16:12:52 -0700",
    "invested" : false,
    "biddable" : true,
    "listing_number" : 12629892,
    "listing_start_date" : "2022-01-13 10:00:44 -0700",
    "lender_yield" : 0.129,
    "borrower_rate" : 0.139,
    "borrower_apr" : 0.1754,
    "listing_term" : 36,
    "listing_monthly_payment" : 511.94,
    "prosper_score" : 6,
    "listing_category_id" : 6,
    "listing_title" : "Auto / Motorcycle / RV / Boat",
    "income_range" : 6,
    "income_range_description" : "$100,000+",
    "stated_monthly_income" : 12500.0,
    "income_verifiable" : true,
    "dti_wprosper_loan" : 0.0684,
    "employment_status_description" : "Self-employed",
    "occupation" : "Self Employed",
    "borrower_state" : "CA",
    "prior_prosper_loans_active" : 0,
    "prior_prosper_loans" : 0,
    "prior_prosper_loans_late_cycles" : 0,
    "prior_prosper_loans_late_payments_one_month_plus" : 0,
    "lender_indicator" : 0,
    "channel_code" : "40000",
    "amount_participation" : 0.0,
    "months_employed" : 69.0
  }, {
    "credit_bureau_values_transunion_indexed" : {
      "credit_report_date" : "2022-01-12 14:11:15 -0700",
      "at02s_open_accounts" : 15.0,
      "g041s_accounts_30_or_more_days_past_due_ever" : 0.0,
      "g093s_number_of_public_records" : 0.0,
      "g094s_number_of_public_record_bankruptcies" : -4.0,
      "g095s_months_since_most_recent_public_record" : -4.0,
      "g102s_months_since_most_recent_inquiry" : 6.0,
      "g218b_number_of_delinquent_accounts" : 0.0,
      "g980s_inquiries_in_the_last_6_months" : 1.0,
      "re20s_age_of_oldest_revolving_account_in_months" : 120.0,
      "s207s_months_since_most_recent_public_record_bankruptcy" : -4.0,
      "re33s_balance_owed_on_all_revolving_accounts" : 18236.0,
      "at57s_amount_delinquent" : 0.0,
      "g099s_public_records_last_24_months" : -4.0,
      "at20s_oldest_trade_open_date" : 120.0,
      "at03s_current_credit_lines" : 15.0,
      "re101s_revolving_balance" : 18236.0,
      "bc34s_bankcard_utilization" : 26.0,
      "at01s_credit_lines" : 34.0,
      "fico_score" : "720-739"
    },
    "has_mortgage" : true,
    "historical_return" : 0.058,
    "historical_return_10th_pctl" : 0.03264,
    "historical_return_90th_pctl" : 0.0938,
    "estimated_monthly_housing_expense" : 1360.0,
    "co_borrower_application" : false,
    "investment_product_id" : 1,
    "decision_bureau" : "TransUnion",
    "member_key" : "6E7C2546236326E330C7",
    "listing_creation_date" : "2022-01-12 19:08:20 -0700",
    "listing_status" : 2,
    "listing_status_reason" : "Active",
    "verification_stage" : 3,
    "listing_amount" : 25000.0,
    "amount_funded" : 10429.8,
    "amount_remaining" : 14570.2,
    "percent_funded" : 0.4171,
    "partial_funding_indicator" : false,
    "funding_threshold" : 1.0,
    "prosper_rating" : "C",
    "investment_typeid" : 1,
    "investment_type_description" : "Fractional",
    "last_updated_date" : "2022-01-12 19:08:20 -0700",
    "invested" : false,
    "biddable" : true,
    "listing_number" : 12421250,
    "listing_start_date" : "2022-01-13 10:00:21 -0700",
    "lender_yield" : 0.145,
    "borrower_rate" : 0.155,
    "borrower_apr" : 0.1918,
    "listing_term" : 36,
    "listing_monthly_payment" : 872.77,
    "prosper_score" : 7,
    "listing_category_id" : 2,
    "listing_title" : "Home Improvement",
    "income_range" : 4,
    "income_range_description" : "$50,000-74,999",
    "stated_monthly_income" : 4333.33,
    "income_verifiable" : true,
    "dti_wprosper_loan" : 0.5916,
    "employment_status_description" : "Employed",
    "occupation" : "Sales - Retail",
    "borrower_state" : "CA",
    "prior_prosper_loans_active" : 0,
    "prior_prosper_loans" : 2,
    "prior_prosper_loans_principal_borrowed" : 47000.0,
    "prior_prosper_loans_principal_outstanding" : 0.0,
    "prior_prosper_loans_balance_outstanding" : 0.0,
    "prior_prosper_loans_cycles_billed" : 1,
    "prior_prosper_loans_ontime_payments" : 1,
    "prior_prosper_loans_late_cycles" : 0,
    "prior_prosper_loans_late_payments_one_month_plus" : 0,
    "max_prior_prosper_loan" : 25000.0,
    "min_prior_prosper_loan" : 22000.0,
    "prior_prosper_loan_earliest_pay_off" : 23,
    "lender_indicator" : 0,
    "channel_code" : "80000",
    "amount_participation" : 0.0,
    "months_employed" : 192.0
  }, {
    "credit_bureau_values_transunion_indexed" : {
      "credit_report_date" : "2022-01-12 17:12:40 -0700",
      "at02s_open_accounts" : 16.0,
      "g041s_accounts_30_or_more_days_past_due_ever" : 2.0,
      "g093s_number_of_public_records" : 0.0,
      "g094s_number_of_public_record_bankruptcies" : -4.0,
      "g095s_months_since_most_recent_public_record" : -4.0,
      "g102s_months_since_most_recent_inquiry" : 2.0,
      "g218b_number_of_delinquent_accounts" : 0.0,
      "g980s_inquiries_in_the_last_6_months" : 2.0,
      "re20s_age_of_oldest_revolving_account_in_months" : 40.0,
      "s207s_months_since_most_recent_public_record_bankruptcy" : -4.0,
      "re33s_balance_owed_on_all_revolving_accounts" : 9728.0,
      "at57s_amount_delinquent" : 0.0,
      "g099s_public_records_last_24_months" : -4.0,
      "at20s_oldest_trade_open_date" : 197.0,
      "at03s_current_credit_lines" : 16.0,
      "re101s_revolving_balance" : 9728.0,
      "bc34s_bankcard_utilization" : 54.0,
      "at01s_credit_lines" : 36.0,
      "fico_score" : "660-679"
    },
    "has_mortgage" : true,
    "historical_return" : 0.058,
    "historical_return_10th_pctl" : 0.03264,
    "historical_return_90th_pctl" : 0.0938,
    "estimated_monthly_housing_expense" : 1600.0,
    "co_borrower_application" : false,
    "investment_product_id" : 1,
    "decision_bureau" : "TransUnion",
    "member_key" : "4BB11974384159A4AA0B",
    "listing_creation_date" : "2022-01-12 17:31:41 -0700",
    "listing_status" : 2,
    "listing_status_reason" : "Active",
    "verification_stage" : 2,
    "listing_amount" : 25000.0,
    "amount_funded" : 6522.0,
    "amount_remaining" : 18478.0,
    "percent_funded" : 0.2608,
    "partial_funding_indicator" : true,
    "funding_threshold" : 0.7,
    "prosper_rating" : "C",
    "investment_typeid" : 1,
    "investment_type_description" : "Fractional",
    "last_updated_date" : "2022-01-13 13:25:28 -0700",
    "invested" : false,
    "biddable" : true,
    "listing_number" : 12421151,
    "listing_start_date" : "2022-01-13 10:00:19 -0700",
    "lender_yield" : 0.1394,
    "borrower_rate" : 0.1494,
    "borrower_apr" : 0.1861,
    "listing_term" : 36,
    "listing_monthly_payment" : 865.9,
    "prosper_score" : 6,
    "listing_category_id" : 1,
    "listing_title" : "Debt Consolidation",
    "income_range" : 6,
    "income_range_description" : "$100,000+",
    "stated_monthly_income" : 9583.33,
    "income_verifiable" : true,
    "dti_wprosper_loan" : 0.2243,
    "employment_status_description" : "Other",
    "borrower_state" : "GA",
    "prior_prosper_loans_active" : 0,
    "prior_prosper_loans" : 0,
    "prior_prosper_loans_late_cycles" : 0,
    "prior_prosper_loans_late_payments_one_month_plus" : 0,
    "lender_indicator" : 0,
    "channel_code" : "40000",
    "amount_participation" : 0.0,
    "months_employed" : 396.0
  } ],
  "result_count" : 3,
  "total_count" : 3
}
